%YAML 1.1
%TAG !u! tag:unity3d.com,2011:
--- !u!74 &7400000
AnimationClip:
  m_ObjectHideFlags: 0
  m_PrefabParentObject: {fileID: 0}
  m_PrefabInternal: {fileID: 0}
  m_Name: LeftArmPunch
  serializedVersion: 6
  m_Legacy: 0
  m_Compressed: 0
  m_UseHighQualityCurve: 1
  m_RotationCurves:
  - curve:
      serializedVersion: 2
      m_Curve:
      - time: 0
        value: {x: -0.7071068, y: 0, z: 8.659561e-17, w: 0.7071068}
        inSlope: {x: 0, y: 0, z: 0, w: 0}
        outSlope: {x: 0, y: 0, z: 0, w: 0}
        tangentMode: 0
      - time: 0.83333325
        value: {x: -0.7071068, y: 0, z: 8.659562e-17, w: 0.7071068}
        inSlope: {x: 0, y: 0, z: 0, w: 0}
        outSlope: {x: 0, y: 0, z: 0, w: 0}
        tangentMode: 0
      m_PreInfinity: 2
      m_PostInfinity: 2
      m_RotationOrder: 4
    path: 
  - curve:
      serializedVersion: 2
      m_Curve:
      - time: 0.00000023841858
        value: {x: 0.7070803, y: -0.000000076923946, z: -0.00000021874422, w: 0.7071333}
        inSlope: {x: -0.01846082, y: -0.54966944, z: -0.5497539, w: -0.017189093}
        outSlope: {x: -0.01846082, y: -0.54966944, z: -0.5497539, w: -0.017189093}
        tangentMode: 0
      - time: 0.041666746
        value: {x: 0.70556843, y: -0.045805573, z: -0.045812666, w: 0.7056743}
        inSlope: {x: -0.07203766, y: -1.098392, z: -1.0986409, w: -0.07077953}
        outSlope: {x: -0.07203766, y: -1.098392, z: -1.0986409, w: -0.07077953}
        tangentMode: 0
      - time: 0.08333349
        value: {x: 0.70107716, y: -0.09153266, z: -0.09155354, w: 0.701235}
        inSlope: {x: -0.02300544, y: -0.27517864, z: -0.045867026, w: -0.002463337}
        outSlope: {x: -0.02300544, y: -0.27517864, z: -0.045867026, w: -0.002463337}
        tangentMode: 0
      - time: 0.12500024
        value: {x: 0.7036513, y: -0.06873717, z: -0.049634926, w: 0.705469}
        inSlope: {x: 0.07036337, y: 1.0152318, z: 1.858659, w: 0.037947033}
        outSlope: {x: 0.07036337, y: 1.0152318, z: 1.858659, w: 0.037947033}
        tangentMode: 0
      - time: 0.16666675
        value: {x: 0.70694077, y: -0.006930198, z: 0.06333436, w: 0.70439726}
        inSlope: {x: -0.048043415, y: 1.4843087, z: 2.6937528, w: -0.17865202}
        outSlope: {x: -0.048043415, y: 1.4843087, z: 2.6937528, w: -0.17865202}
        tangentMode: 0
      - time: 0.20833349
        value: {x: 0.69964767, y: 0.0549551, z: 0.17484425, w: 0.6905813}
        inSlope: {x: -0.10557656, y: 1.0183778, z: 1.8308768, w: -0.3147949}
        outSlope: {x: -0.10557656, y: 1.0183778, z: 1.8308768, w: -0.3147949}
        tangentMode: 0
      - time: 0.25000024
        value: {x: 0.6981427, y: 0.07793478, z: 0.21590772, w: 0.6781643}
        inSlope: {x: 0.09869933, y: 0.30657595, z: 0.461142, w: -0.2644545}
        outSlope: {x: 0.09869933, y: 0.30657595, z: 0.461142, w: -0.2644545}
        tangentMode: 0
      - time: 0.29166675
        value: {x: 0.70787257, y: 0.08050313, z: 0.21327284, w: 0.66854346}
        inSlope: {x: 0.30108413, y: 0.119508006, z: -0.1287204, w: -0.29553732}
        outSlope: {x: 0.30108413, y: 0.119508006, z: -0.1287204, w: -0.29553732}
        tangentMode: 0
      - time: 0.4583335
        value: {x: 0.75647175, y: 0.1107927, z: 0.16903801, w: 0.62201416}
        inSlope: {x: 0.053452387, y: 0.03445255, z: -0.28404307, w: 0.0059537776}
        outSlope: {x: 0.053452387, y: 0.03445255, z: -0.28404307, w: 0.0059537776}
        tangentMode: 0
      - time: 0.66666675
        value: {x: 0.731447, y: 0.04637955, z: 0.058050986, w: 0.677838}
        inSlope: {x: -0.23942633, y: -0.50466824, z: -0.6633369, w: 0.35057986}
        outSlope: {x: -0.23942633, y: -0.50466824, z: -0.6633369, w: 0.35057986}
        tangentMode: 0
      - time: 0.79166675
        value: {x: 0.7071067, y: 0.0000004090307, z: -0.0000002468416, w: 0.7071068}
        inSlope: {x: -0.053776708, y: -0.09528358, z: -0.11487827, w: 0.055441115}
        outSlope: {x: -0.053776708, y: -0.09528358, z: -0.11487827, w: 0.055441115}
        tangentMode: 0
      - time: 0.83333325
        value: {x: 0.7066592, y: 0.0005996474, z: 0.00039486354, w: 0.70779705}
        inSlope: {x: 0.015223474, y: 0.15056945, z: 0.15546747, w: -0.012079216}
        outSlope: {x: 0.015223474, y: 0.15056945, z: 0.15546747, w: -0.012079216}
        tangentMode: 0
      m_PreInfinity: 2
      m_PostInfinity: 2
      m_RotationOrder: 4
    path: Body
  - curve:
      serializedVersion: 2
      m_Curve:
      - time: 0.00000023841858
        value: {x: 0.55215776, y: 0.441726, z: 0.55215746, w: -0.44172624}
        inSlope: {x: -0.56553054, y: 0.41673568, z: 0.5209206, w: 0.45242387}
        outSlope: {x: -0.56553054, y: 0.41673568, z: 0.5209206, w: 0.45242387}
        tangentMode: 0
      - time: 0.041666746
        value: {x: 0.5050303, y: 0.47645393, z: 0.59556746, w: -0.4040243}
        inSlope: {x: -1.1718621, y: 0.7949736, z: 0.993718, w: 0.9374876}
        outSlope: {x: -1.1718621, y: 0.7949736, z: 0.993718, w: 0.9374876}
        tangentMode: 0
      - time: 0.08333349
        value: {x: 0.45450267, y: 0.50797373, z: 0.6349672, w: -0.36360234}
        inSlope: {x: -0.38684678, y: 0.23366074, z: 0.3117901, w: 0.29144865}
        outSlope: {x: -0.38684678, y: 0.23366074, z: 0.3117901, w: 0.29144865}
        tangentMode: 0
      - time: 0.16666675
        value: {x: 0.5188772, y: 0.46201295, z: 0.5834774, w: -0.42055282}
        inSlope: {x: 1.0665348, y: -0.84958184, z: -0.9587911, w: -0.9475772}
        outSlope: {x: 1.0665348, y: -0.84958184, z: -0.9587911, w: -0.9475772}
        tangentMode: 0
      - time: 0.20833349
        value: {x: 0.5616708, y: 0.42512727, z: 0.54165083, w: -0.45870155}
        inSlope: {x: 0.6972085, y: -0.61917174, z: -0.70334756, w: -0.62230134}
        outSlope: {x: 0.6972085, y: -0.61917174, z: -0.70334756, w: -0.62230134}
        tangentMode: 0
      - time: 0.29166675
        value: {x: 0.57487875, y: 0.4132163, z: 0.52742016, w: -0.4696751}
        inSlope: {x: -0.09826179, y: 0.12899667, z: 0.11404105, w: 0.12357147}
        outSlope: {x: -0.09826179, y: 0.12899667, z: 0.11404105, w: 0.12357147}
        tangentMode: 0
      - time: 0.4583335
        value: {x: 0.55215764, y: 0.44172612, z: 0.5521576, w: -0.44172618}
        inSlope: {x: -0.027355619, y: 0.032694634, z: 0.028230375, w: 0.033434924}
        outSlope: {x: -0.027355619, y: 0.032694634, z: 0.028230375, w: 0.033434924}
        tangentMode: 0
      - time: 0.79166675
        value: {x: 0.5521576, y: 0.4417262, z: 0.5521575, w: -0.44172624}
        inSlope: {x: 0.0000007152503, y: 0, z: -0.0000057220022, w: -0.000005364377}
        outSlope: {x: 0.0000007152503, y: 0, z: -0.0000057220022, w: -0.000005364377}
        tangentMode: 0
      - time: 0.83333373
        value: {x: 0.55215764, y: 0.4417262, z: 0.55215704, w: -0.44172668}
        inSlope: {x: -0.00637939, y: -0.06632878, z: -0.61425894, w: -0.752679}
        outSlope: {x: -0.00637939, y: -0.06632878, z: -0.61425894, w: -0.752679}
        tangentMode: 0
      m_PreInfinity: 2
      m_PostInfinity: 2
      m_RotationOrder: 4
    path: Body/ShoulderR
  - curve:
      serializedVersion: 2
      m_Curve:
      - time: 0
        value: {x: -0.45606813, y: 0.0022956554, z: -0.0023853662, w: 0.8903413}
        inSlope: {x: -0.014001279, y: 0.028657882, z: 0.006995948, w: -0.012115865}
        outSlope: {x: -0.014001279, y: 0.028657882, z: 0.006995948, w: -0.012115865}
        tangentMode: 0
      - time: 0.08333349
        value: {x: -0.45572805, y: -0.0000001780015, z: 0.00000016348993, w: 0.8901191}
        inSlope: {x: -0.00009262545, y: -0.053959712, z: 0.09934108, w: -0.00064515945}
        outSlope: {x: -0.00009262545, y: -0.053959712, z: 0.09934108, w: -0.00064515945}
        tangentMode: 0
      - time: 0.25000024
        value: {x: -0.45462582, y: -0.0325503, z: 0.059825394, w: 0.88807476}
        inSlope: {x: 0.003202908, y: -0.053682387, z: 0.091498695, w: -0.0058951243}
        outSlope: {x: 0.003202908, y: -0.053682387, z: 0.091498695, w: -0.0058951243}
        tangentMode: 0
      - time: 0.50000024
        value: {x: -0.46232894, y: -0.026181638, z: 0.039733946, w: 0.8854308}
        inSlope: {x: -0.0019347696, y: 0.07383019, z: -0.12965965, w: 0.006882913}
        outSlope: {x: -0.0019347696, y: 0.07383019, z: -0.12965965, w: 0.006882913}
        tangentMode: 0
      - time: 0.79166675
        value: {x: -0.45595786, y: -0.00000015239117, z: 0.00000013415364, w: 0.89000136}
        inSlope: {x: 0.0065678232, y: 0.01826024, z: -0.025905754, w: 0.0034117633}
        outSlope: {x: 0.0065678232, y: 0.01826024, z: -0.025905754, w: 0.0034117633}
        tangentMode: 0
      - time: 0.83333373
        value: {x: -0.4556827, y: -0.00000016960963, z: 0.00000008592793, w: 0.89014226}
        inSlope: {x: 0.7942645, y: -0.0000003749569, z: -0.0000009961575, w: 0.37093517}
        outSlope: {x: 0.7942645, y: -0.0000003749569, z: -0.0000009961575, w: 0.37093517}
        tangentMode: 0
      m_PreInfinity: 2
      m_PostInfinity: 2
      m_RotationOrder: 4
    path: Body/ShoulderR/ArmR1
  - curve:
      serializedVersion: 2
      m_Curve:
      - time: 0
        value: {x: -0.1352284, y: 0.000028275768, z: 0.00013708364, w: 0.9908289}
        inSlope: {x: 0.012019515, y: -0.000794041, z: -0.0036210297, w: 0.0011405945}
        outSlope: {x: 0.012019515, y: -0.000794041, z: -0.0036210297, w: 0.0011405945}
        tangentMode: 0
      - time: 0.041666746
        value: {x: -0.13468699, y: -0.00000024307883, z: 0.000000092721265, w: 0.9908882}
        inSlope: {x: 0.00023067021, y: -0.0000006101772, z: 0.00000024039164, w: 0.000030756026}
        outSlope: {x: 0.00023067021, y: -0.0000006101772, z: 0.00000024039164, w: 0.000030756026}
        tangentMode: 0
      - time: 0.12500024
        value: {x: -0.13434729, y: -0.021992257, z: 0.011037144, w: 0.9906288}
        inSlope: {x: 0.019924039, y: -0.9561986, z: 0.47988346, w: -0.04552618}
        outSlope: {x: 0.019924039, y: -0.9561986, z: 0.47988346, w: -0.04552618}
        tangentMode: 0
      - time: 0.16666675
        value: {x: -0.13301706, y: -0.079683326, z: 0.039990313, w: 0.98709565}
        inSlope: {x: 0.03859969, y: -1.3805925, z: 0.6928719, w: -0.13431714}
        outSlope: {x: 0.03859969, y: -1.3805925, z: 0.6928719, w: -0.13431714}
        tangentMode: 0
      - time: 0.20833349
        value: {x: -0.13113065, y: -0.13704152, z: 0.068776414, w: 0.9794357}
        inSlope: {x: 0.032985386, y: -0.94857824, z: 0.47605902, w: -0.1398358}
        outSlope: {x: 0.032985386, y: -0.94857824, z: 0.47605902, w: -0.1398358}
        tangentMode: 0
      - time: 0.3333335
        value: {x: -0.13678999, y: -0.14047599, z: 0.06799598, w: 0.9782288}
        inSlope: {x: -0.13183479, y: 0.40539777, z: -0.2549292, w: 0.055585995}
        outSlope: {x: -0.13183479, y: 0.40539777, z: -0.2549292, w: 0.055585995}
        tangentMode: 0
      - time: 0.4583335
        value: {x: -0.14960714, y: -0.08429748, z: 0.03445507, w: 0.9845428}
        inSlope: {x: -0.017780866, y: 0.34410352, z: -0.1833801, w: 0.033915933}
        outSlope: {x: -0.017780866, y: 0.34410352, z: -0.1833801, w: 0.033915933}
        tangentMode: 0
      - time: 0.79166675
        value: {x: -0.13470611, y: -0.00000023362813, z: 0.000000097785005, w: 0.9908856}
        inSlope: {x: 0.01254313, y: 0.038075358, z: -0.0120403515, w: 0.0017788478}
        outSlope: {x: 0.01254313, y: 0.038075358, z: -0.0120403515, w: 0.0017788478}
        tangentMode: 0
      - time: 0.83333325
        value: {x: -0.13463478, y: 0.00011553848, z: -0.00079804333, w: 0.99099016}
        inSlope: {x: -0.028180664, y: -0.045028113, z: -0.08204572, w: -0.0021071394}
        outSlope: {x: -0.028180664, y: -0.045028113, z: -0.08204572, w: -0.0021071394}
        tangentMode: 0
      m_PreInfinity: 2
      m_PostInfinity: 2
      m_RotationOrder: 4
    path: Body/ShoulderR/ArmR1/ArmR2
  - curve:
      serializedVersion: 2
      m_Curve:
      - time: 0.00000023841858
        value: {x: 0.5475354, y: -0.44744274, z: -0.5475351, w: -0.44744298}
        inSlope: {x: 0.18042895, y: 0.2058099, z: 0.1872704, w: -0.20020942}
        outSlope: {x: 0.18042895, y: 0.2058099, z: 0.1872704, w: -0.20020942}
        tangentMode: 0
      - time: 0.041666746
        value: {x: 0.5625711, y: -0.43029198, z: -0.53192943, w: -0.4641269}
        inSlope: {x: 0.41813874, y: 0.3649758, z: 0.44662592, w: -0.3417014}
        outSlope: {x: 0.41813874, y: 0.3649758, z: 0.44662592, w: -0.3417014}
        tangentMode: 0
      - time: 0.08333349
        value: {x: 0.5823803, y: -0.41702813, z: -0.5103163, w: -0.47591805}
        inSlope: {x: 0.32985887, y: -0.3126055, z: 0.312029, w: 0.3717138}
        outSlope: {x: 0.32985887, y: -0.3126055, z: 0.312029, w: 0.3717138}
        tangentMode: 0
      - time: 0.12500024
        value: {x: 0.5900594, y: -0.4563425, z: -0.50592697, w: -0.4331507}
        inSlope: {x: 0.059023313, y: -1.4944685, z: 0.06362051, w: 1.7903888}
        outSlope: {x: 0.059023313, y: -1.4944685, z: 0.06362051, w: 1.7903888}
        tangentMode: 0
      - time: 0.16666675
        value: {x: 0.5872989, y: -0.5415669, z: -0.5050146, w: -0.3267193}
        inSlope: {x: -0.21056893, y: -1.8813062, z: 0.07427065, w: 2.607953}
        outSlope: {x: -0.21056893, y: -1.8813062, z: 0.07427065, w: 2.607953}
        tangentMode: 0
      - time: 0.20833349
        value: {x: 0.572512, y: -0.6131178, z: -0.49973774, w: -0.21582149}
        inSlope: {x: -0.25009227, y: -1.1057825, z: 0.07866511, w: 1.8746907}
        outSlope: {x: -0.25009227, y: -1.1057825, z: 0.07866511, w: 1.8746907}
        tangentMode: 0
      - time: 0.25000024
        value: {x: 0.56645787, y: -0.6337156, z: -0.49845916, w: -0.1704948}
        inSlope: {x: -0.022839215, y: -0.16648859, z: -0.04365875, w: 0.5854805}
        outSlope: {x: -0.022839215, y: -0.16648859, z: -0.04365875, w: 0.5854805}
        tangentMode: 0
      - time: 0.29166675
        value: {x: 0.5706087, y: -0.6269919, z: -0.50337595, w: -0.16703138}
        inSlope: {x: 0.108782604, y: 0.20856434, z: -0.1473499, w: 0.03614705}
        outSlope: {x: 0.108782604, y: 0.20856434, z: -0.1473499, w: 0.03614705}
        tangentMode: 0
      - time: 0.4583335
        value: {x: 0.5847979, y: -0.5757784, z: -0.53327674, w: -0.20519882}
        inSlope: {x: 0.018254008, y: 0.32096827, z: -0.13308094, w: -0.496202}
        outSlope: {x: 0.018254008, y: 0.32096827, z: -0.13308094, w: -0.496202}
        tangentMode: 0
      - time: 0.66666675
        value: {x: 0.56675154, y: -0.48691592, z: -0.551281, w: -0.37120736}
        inSlope: {x: -0.19102222, y: 0.4551, z: 0.007770427, w: -0.9046807}
        outSlope: {x: -0.19102222, y: 0.4551, z: 0.007770427, w: -0.9046807}
        tangentMode: 0
      - time: 0.79166675
        value: {x: 0.5475354, y: -0.44744274, z: -0.5475351, w: -0.44744298}
        inSlope: {x: -0.04184405, y: 0.07748181, z: 0.012133645, w: -0.14626248}
        outSlope: {x: -0.04184405, y: 0.07748181, z: 0.012133645, w: -0.14626248}
        tangentMode: 0
      - time: 0.83333325
        value: {x: 0.54667556, y: -0.44527787, z: -0.54740614, w: -0.450881}
        inSlope: {x: -0.004369259, y: 0.036655426, z: -0.004691124, w: -0.036535263}
        outSlope: {x: -0.004369259, y: 0.036655426, z: -0.004691124, w: -0.036535263}
        tangentMode: 0
      m_PreInfinity: 2
      m_PostInfinity: 2
      m_RotationOrder: 4
    path: Body/ShoulderL
  - curve:
      serializedVersion: 2
      m_Curve:
      - time: 0.00000023841858
        value: {x: -0.47439626, y: 0.00000003335004, z: -0.0000002745252, w: 0.8803114}
        inSlope: {x: 0.060779445, y: -0.626622, z: -0.52224857, w: 0.0010843319}
        outSlope: {x: 0.060779445, y: -0.626622, z: -0.52224857, w: 0.0010843319}
        tangentMode: 0
      - time: 0.041666746
        value: {x: -0.46933123, y: -0.052218087, z: -0.043520678, w: 0.88040185}
        inSlope: {x: 0.2438327, y: -1.2523398, z: -1.0437429, w: 0.0027894983}
        outSlope: {x: 0.2438327, y: -1.2523398, z: -1.0437429, w: 0.0027894983}
        tangentMode: 0
      - time: 0.08333349
        value: {x: -0.45407686, y: -0.10436152, z: -0.08697877, w: 0.8805439}
        inSlope: {x: 0.3915821, y: -0.21777382, z: -0.061142445, w: 0.18157019}
        outSlope: {x: 0.3915821, y: -0.21777382, z: -0.061142445, w: 0.18157019}
        tangentMode: 0
      - time: 0.12500024
        value: {x: -0.43669933, y: -0.07036594, z: -0.04861589, w: 0.8955327}
        inSlope: {x: 0.5423096, y: 1.5271668, z: 1.7008033, w: 0.36132324}
        outSlope: {x: 0.5423096, y: 1.5271668, z: 1.7008033, w: 0.36132324}
        tangentMode: 0
      - time: 0.16666675
        value: {x: -0.40888447, y: 0.02290209, z: 0.054754514, w: 0.9106541}
        inSlope: {x: 0.70804334, y: 2.252038, z: 2.4517016, w: 0.1157342}
        outSlope: {x: 0.70804334, y: 2.252038, z: 2.4517016, w: 0.1157342}
        tangentMode: 0
      - time: 0.20833349
        value: {x: -0.37769577, y: 0.11730371, z: 0.15569237, w: 0.9051772}
        inSlope: {x: 0.5300607, y: 1.5925751, z: 1.6300769, w: -0.15159672}
        outSlope: {x: 0.5300607, y: 1.5925751, z: 1.6300769, w: -0.15159672}
        tangentMode: 0
      - time: 0.25000024
        value: {x: -0.36471266, y: 0.15561694, z: 0.19059451, w: 0.89802104}
        inSlope: {x: 0.10589741, y: 0.50620645, z: 0.3642444, w: -0.102971695}
        outSlope: {x: 0.10589741, y: 0.50620645, z: 0.3642444, w: -0.102971695}
        tangentMode: 0
      - time: 0.29166675
        value: {x: -0.36887094, y: 0.15948763, z: 0.18604615, w: 0.8965962}
        inSlope: {x: -0.20079902, y: 0.04658085, z: -0.15245679, w: -0.06048487}
        outSlope: {x: -0.20079902, y: 0.04658085, z: -0.15245679, w: -0.06048487}
        tangentMode: 0
      - time: 0.4583335
        value: {x: -0.42947283, y: 0.14038217, z: 0.13654281, w: 0.8815906}
        inSlope: {x: -0.26341674, y: -0.22721931, z: -0.3777843, w: -0.03376859}
        outSlope: {x: -0.26341674, y: -0.22721931, z: -0.3777843, w: -0.03376859}
        tangentMode: 0
      - time: 0.70833373
        value: {x: -0.47116333, y: 0.025602123, z: 0.020646246, w: 0.8814326}
        inSlope: {x: -0.07540738, y: -0.47850186, z: -0.39700133, w: -0.01488732}
        outSlope: {x: -0.07540738, y: -0.47850186, z: -0.39700133, w: -0.01488732}
        tangentMode: 0
      - time: 0.83333325
        value: {x: -0.47452974, y: -0.0011491554, z: -0.0014723532, w: 0.8805591}
        inSlope: {x: 0.012202567, y: -0.04872681, z: -0.049331374, w: 0.0025188485}
        outSlope: {x: 0.012202567, y: -0.04872681, z: -0.049331374, w: 0.0025188485}
        tangentMode: 0
      m_PreInfinity: 2
      m_PostInfinity: 2
      m_RotationOrder: 4
    path: Body/ShoulderL/ArmL1
  - curve:
      serializedVersion: 2
      m_Curve:
      - time: 0.00000023841858
        value: {x: -0.11106219, y: 0.000000616035, z: 0.0000012578223, w: 0.99381346}
        inSlope: {x: -0.4648108, y: 1.1150577, z: 4.0222974, w: -0.8196089}
        outSlope: {x: -0.4648108, y: 1.1150577, z: 4.0222974, w: -0.8196089}
        tangentMode: 0
      - time: 0.041666746
        value: {x: -0.14979619, y: 0.092921354, z: 0.33519012, w: 0.925513}
        inSlope: {x: -0.70105326, y: 2.088323, z: 7.5331144, w: -3.0513792}
        outSlope: {x: -0.70105326, y: 2.088323, z: 7.5331144, w: -3.0513792}
        tangentMode: 0
      - time: 0.08333349
        value: {x: -0.16948318, y: 0.17402735, z: 0.62776005, w: 0.73953176}
        inSlope: {x: -0.039050028, y: 0.75556725, z: 2.8373384, w: -1.6154635}
        outSlope: {x: -0.039050028, y: 0.75556725, z: 2.8373384, w: -1.6154635}
        tangentMode: 0
      - time: 0.12500024
        value: {x: -0.15305036, y: 0.15588541, z: 0.5716354, w: 0.7908908}
        inSlope: {x: 0.79708195, y: -0.87792, z: -2.765707, w: 2.0011523}
        outSlope: {x: 0.79708195, y: -0.87792, z: -2.765707, w: 2.0011523}
        tangentMode: 0
      - time: 0.16666675
        value: {x: -0.10305985, y: 0.10086753, z: 0.397285, w: 0.9062941}
        inSlope: {x: 1.2600622, y: -1.3873739, z: -4.480953, w: 2.2471147}
        outSlope: {x: 1.2600622, y: -1.3873739, z: -4.480953, w: 2.2471147}
        tangentMode: 0
      - time: 0.20833349
        value: {x: -0.048045266, y: 0.040271018, z: 0.19822297, w: 0.97815007}
        inSlope: {x: 0.90632755, y: -1.0119143, z: -3.4086733, w: 1.0410656}
        outSlope: {x: 0.90632755, y: -1.0119143, z: -3.4086733, w: 1.0410656}
        tangentMode: 0
      - time: 0.25000024
        value: {x: -0.027532414, y: 0.016541177, z: 0.11322837, w: 0.99304974}
        inSlope: {x: 0.21811886, y: -0.29562408, z: -1.1620439, w: 0.19350787}
        outSlope: {x: 0.21811886, y: -0.29562408, z: -1.1620439, w: 0.19350787}
        tangentMode: 0
      - time: 0.29166675
        value: {x: -0.029868646, y: 0.015635638, z: 0.10138585, w: 0.99427575}
        inSlope: {x: -0.10646872, y: -0.004836501, z: -0.2153157, w: 0.019241141}
        outSlope: {x: -0.10646872, y: -0.004836501, z: -0.2153157, w: 0.019241141}
        tangentMode: 0
      - time: 0.50000024
        value: {x: -0.070443556, y: 0.016717546, z: 0.074871, w: 0.9945615}
        inSlope: {x: -0.16784209, y: -0.039789483, z: -0.24426362, w: 0.0069000777}
        outSlope: {x: -0.16784209, y: -0.039789483, z: -0.24426362, w: 0.0069000777}
        tangentMode: 0
      - time: 0.79166675
        value: {x: -0.11106242, y: 0.00000023999783, z: -0.0000000011371412, w: 0.99381346}
        inSlope: {x: -0.022614237, y: -0.012446295, z: -0.048756037, w: -0.0023989768}
        outSlope: {x: -0.022614237, y: -0.012446295, z: -0.048756037, w: -0.0023989768}
        tangentMode: 0
      - time: 0.83333325
        value: {x: -0.11170776, y: -0.0004991003, z: -0.0021696093, w: 0.9937402}
        inSlope: {x: -0.0087237675, y: -0.011508692, z: -0.055018064, w: -0.0011492113}
        outSlope: {x: -0.0087237675, y: -0.011508692, z: -0.055018064, w: -0.0011492113}
        tangentMode: 0
      m_PreInfinity: 2
      m_PostInfinity: 2
      m_RotationOrder: 4
    path: Body/ShoulderL/ArmL1/ArmL2
  - curve:
      serializedVersion: 2
      m_Curve:
      - time: 0
        value: {x: -0.17327291, y: 0.17327304, z: -0.68554825, w: 0.68554837}
        inSlope: {x: 0.00000022172928, y: -0.00000015735627, z: -0.00000002861023,
          w: 0.00000008583069}
        outSlope: {x: 0.00000022172928, y: -0.00000015735627, z: -0.00000002861023,
          w: 0.00000008583069}
        tangentMode: 0
      - time: 0.83333325
        value: {x: -0.17327273, y: 0.17327291, z: -0.68554825, w: 0.6855484}
        inSlope: {x: 0.00000021457673, y: -0.00000011444092, z: -0.00000002861023,
          w: 0.00000005722046}
        outSlope: {x: 0.00000021457673, y: -0.00000011444092, z: -0.00000002861023,
          w: 0.00000005722046}
        tangentMode: 0
      m_PreInfinity: 2
      m_PostInfinity: 2
      m_RotationOrder: 4
    path: HipR
  - curve:
      serializedVersion: 2
      m_Curve:
      - time: 0
        value: {x: -0.47252902, y: -0.00000049298484, z: 0.00000040859504, w: 0.88131523}
        inSlope: {x: -0.000000371933, y: 0.000000030282408, z: 0.00000005708584, w: -0.00000005722046}
        outSlope: {x: -0.000000371933, y: 0.000000030282408, z: 0.00000005708584,
          w: -0.00000005722046}
        tangentMode: 0
      - time: 0.83333325
        value: {x: -0.47252932, y: -0.00000046774943, z: 0.0000004561665, w: 0.8813152}
        inSlope: {x: -0.0000003862381, y: 0.00000003028248, z: 0.000000057085593,
          w: -0.00000040054323}
        outSlope: {x: -0.0000003862381, y: 0.00000003028248, z: 0.000000057085593,
          w: -0.00000040054323}
        tangentMode: 0
      m_PreInfinity: 2
      m_PostInfinity: 2
      m_RotationOrder: 4
    path: HipR/LegR
  - curve:
      serializedVersion: 2
      m_Curve:
      - time: 0
        value: {x: 0.0051699667, y: -0.000000090108486, z: 0.000000018027475, w: 0.99998665}
        inSlope: {x: -0.00000022708417, y: 9.775374e-11, z: 0.00000003151444, w: 0}
        outSlope: {x: -0.00000022708417, y: 9.775374e-11, z: 0.00000003151444, w: 0}
        tangentMode: 0
      - time: 0.83333325
        value: {x: 0.0051697786, y: -0.00000009002705, z: 0.000000044289507, w: 0.99998665}
        inSlope: {x: -0.00000022541967, y: 9.772472e-11, z: 0.00000003151444, w: 0}
        outSlope: {x: -0.00000022541967, y: 9.772472e-11, z: 0.00000003151444, w: 0}
        tangentMode: 0
      m_PreInfinity: 2
      m_PostInfinity: 2
      m_RotationOrder: 4
    path: HipR/LegR/FootR
  - curve:
      serializedVersion: 2
      m_Curve:
      - time: 0
        value: {x: -0.16806796, y: -0.16821627, z: 0.6871276, w: 0.6865214}
        inSlope: {x: 0.00008435726, y: -0.00008520842, z: 0.0003459549, w: -0.00034672738}
        outSlope: {x: 0.00008435726, y: -0.00008520842, z: 0.0003459549, w: -0.00034672738}
        tangentMode: 0
      - time: 0.83333325
        value: {x: -0.1679977, y: -0.16828728, z: 0.6874157, w: 0.68623275}
        inSlope: {x: 0.000084228515, y: -0.00008523703, z: 0.0003456402, w: -0.00034604073}
        outSlope: {x: 0.000084228515, y: -0.00008523703, z: 0.0003456402, w: -0.00034604073}
        tangentMode: 0
      m_PreInfinity: 2
      m_PostInfinity: 2
      m_RotationOrder: 4
    path: HipL
  - curve:
      serializedVersion: 2
      m_Curve:
      - time: 0
        value: {x: -0.46667954, y: 0.00000027635102, z: -0.0000002692591, w: 0.8844265}
        inSlope: {x: -0.000090265276, y: -0.000000008039178, z: -0.000000015223783,
          w: -0.000047435762}
        outSlope: {x: -0.000090265276, y: -0.000000008039178, z: -0.000000015223783,
          w: -0.000047435762}
        tangentMode: 0
      - time: 0.83333325
        value: {x: -0.46675473, y: 0.00000026965273, z: -0.00000028194611, w: 0.8843869}
        inSlope: {x: -0.00009019375, y: -0.000000008036709, z: -0.000000015225064,
          w: -0.000047578815}
        outSlope: {x: -0.00009019375, y: -0.000000008036709, z: -0.000000015225064,
          w: -0.000047578815}
        tangentMode: 0
      m_PreInfinity: 2
      m_PostInfinity: 2
      m_RotationOrder: 4
    path: HipL/LegL
  - curve:
      serializedVersion: 2
      m_Curve:
      - time: 0
        value: {x: -0.0013078419, y: 0.00000013166567, z: -0.000000010463174, w: 0.99999917}
        inSlope: {x: 0.00000027808528, y: -2.3033414e-10, z: -0.000000007132743, w: 0}
        outSlope: {x: 0.00000027808528, y: -2.3033414e-10, z: -0.000000007132743,
          w: 0}
        tangentMode: 0
      - time: 0.83333325
        value: {x: -0.0013076097, y: 0.00000013147375, z: -0.000000016407125, w: 0.99999917}
        inSlope: {x: 0.00000027916866, y: -2.3025758e-10, z: -0.0000000071327295,
          w: 0}
        outSlope: {x: 0.00000027916866, y: -2.3025758e-10, z: -0.0000000071327295,
          w: 0}
        tangentMode: 0
      m_PreInfinity: 2
      m_PostInfinity: 2
      m_RotationOrder: 4
    path: HipL/LegL/FootL
  m_CompressedRotationCurves: []
  m_EulerCurves: []
  m_PositionCurves:
  - curve:
      serializedVersion: 2
      m_Curve:
      - time: 0
        value: {x: 0, y: 16.072927, z: 0}
        inSlope: {x: 0, y: 0, z: 0}
        outSlope: {x: 0, y: 0, z: 0}
        tangentMode: 0
      - time: 0.83333325
        value: {x: 0, y: 16.072927, z: 0}
        inSlope: {x: 0, y: 0, z: 0}
        outSlope: {x: 0, y: 0, z: 0}
        tangentMode: 0
      m_PreInfinity: 2
      m_PostInfinity: 2
      m_RotationOrder: 4
    path: 
  - curve:
      serializedVersion: 2
      m_Curve:
      - time: 0
        value: {x: 0, y: 0, z: -3.8274376}
        inSlope: {x: 0, y: 0, z: 0}
        outSlope: {x: 0, y: 0, z: 0}
        tangentMode: 0
      - time: 0.83333325
        value: {x: 0, y: 0, z: -3.8274374}
        inSlope: {x: 0, y: 0, z: 0}
        outSlope: {x: 0, y: 0, z: 0}
        tangentMode: 0
      m_PreInfinity: 2
      m_PostInfinity: 2
      m_RotationOrder: 4
    path: Body
  - curve:
      serializedVersion: 2
      m_Curve:
      - time: 0
        value: {x: 7.9220095e-15, y: 8.654875, z: -1.39675835e-14}
        inSlope: {x: 0, y: 0, z: 0}
        outSlope: {x: 0, y: 0, z: 0}
        tangentMode: 0
      - time: 0.83333325
        value: {x: 7.9220095e-15, y: 8.654875, z: -1.39675835e-14}
        inSlope: {x: 0, y: 0, z: 0}
        outSlope: {x: 0, y: 0, z: 0}
        tangentMode: 0
      m_PreInfinity: 2
      m_PostInfinity: 2
      m_RotationOrder: 4
    path: Body/ShoulderR
  - curve:
      serializedVersion: 2
      m_Curve:
      - time: 0
        value: {x: 3.5527137e-14, y: 5.7806163, z: -1.7763568e-15}
        inSlope: {x: 0, y: 0, z: 0}
        outSlope: {x: 0, y: 0, z: 0}
        tangentMode: 0
      - time: 0.83333325
        value: {x: 3.5527137e-14, y: 5.7806163, z: -1.7763568e-15}
        inSlope: {x: 0, y: 0, z: 0}
        outSlope: {x: 0, y: 0, z: 0}
        tangentMode: 0
      m_PreInfinity: 2
      m_PostInfinity: 2
      m_RotationOrder: 4
    path: Body/ShoulderR/ArmR1
  - curve:
      serializedVersion: 2
      m_Curve:
      - time: 0
        value: {x: -5.580363e-14, y: 7.306464, z: -0.00000005524126}
        inSlope: {x: -9.774298e-14, y: -0.0000004577637, z: -0.000000052335395}
        outSlope: {x: -9.774298e-14, y: -0.0000004577637, z: -0.000000052335395}
        tangentMode: 0
      - time: 0.79166675
        value: {x: -1.3318344e-13, y: 7.3064637, z: -0.00000009667345}
        inSlope: {x: -9.7742825e-14, y: -0, z: -0.000000052335423}
        outSlope: {x: -9.774301e-14, y: -0, z: -0.000000052335338}
        tangentMode: 0
      - time: 0.83333325
        value: {x: -1.3725605e-13, y: 7.306464, z: -0.00000009885409}
        inSlope: {x: -9.774299e-14, y: 0, z: -0.00000005233533}
        outSlope: {x: -9.774299e-14, y: 0, z: -0.00000005233533}
        tangentMode: 0
      m_PreInfinity: 2
      m_PostInfinity: 2
      m_RotationOrder: 4
    path: Body/ShoulderR/ArmR1/ArmR2
  - curve:
      serializedVersion: 2
      m_Curve:
      - time: 0
        value: {x: 7.9220095e-15, y: 8.654875, z: -1.39675835e-14}
        inSlope: {x: 0, y: 0, z: 0}
        outSlope: {x: 0, y: 0, z: 0}
        tangentMode: 0
      - time: 0.83333325
        value: {x: 7.9220095e-15, y: 8.654875, z: -1.39675835e-14}
        inSlope: {x: 0, y: 0, z: 0}
        outSlope: {x: 0, y: 0, z: 0}
        tangentMode: 0
      m_PreInfinity: 2
      m_PostInfinity: 2
      m_RotationOrder: 4
    path: Body/ShoulderL
  - curve:
      serializedVersion: 2
      m_Curve:
      - time: 0
        value: {x: -6.273573e-14, y: 5.89881, z: 0.000000116301194}
        inSlope: {x: -1.4557481e-14, y: 0, z: 0.000000034890395}
        outSlope: {x: -1.4557481e-14, y: 0, z: 0.000000034890395}
        tangentMode: 0
      - time: 0.79166675
        value: {x: -7.426038e-14, y: 5.89881, z: 0.00000014392272}
        inSlope: {x: -1.4557422e-14, y: -0, z: 0.00000003489028}
        outSlope: {x: -1.4557417e-14, y: -0, z: 0.000000034890565}
        tangentMode: 0
      - time: 0.83333325
        value: {x: -7.4866945e-14, y: 5.8988104, z: 0.00000014537649}
        inSlope: {x: -1.455742e-14, y: 0.000000029194107, z: 0.00000003489054}
        outSlope: {x: -1.455742e-14, y: 0.000000029194107, z: 0.00000003489054}
        tangentMode: 0
      m_PreInfinity: 2
      m_PostInfinity: 2
      m_RotationOrder: 4
    path: Body/ShoulderL/ArmL1
  - curve:
      serializedVersion: 2
      m_Curve:
      - time: 0
        value: {x: -1.1784612e-14, y: 7.191134, z: 0.000000046520405}
        inSlope: {x: -2.9114925e-14, y: -0.0000004577637, z: 0.00000015700734}
        outSlope: {x: -2.9114925e-14, y: -0.0000004577637, z: 0.00000015700734}
        tangentMode: 0
      - time: 0.79166675
        value: {x: -3.4833925e-14, y: 7.191134, z: 0.0000001708178}
        inSlope: {x: -2.9114925e-14, y: -0, z: 0.00000015700712}
        outSlope: {x: -2.9114914e-14, y: -0, z: 0.00000015700738}
        tangentMode: 0
      - time: 0.83333325
        value: {x: -3.6047042e-14, y: 7.1911345, z: 0.00000017735977}
        inSlope: {x: -2.911491e-14, y: 0, z: 0.00000015700734}
        outSlope: {x: -2.911491e-14, y: 0, z: 0.00000015700734}
        tangentMode: 0
      m_PreInfinity: 2
      m_PostInfinity: 2
      m_RotationOrder: 4
    path: Body/ShoulderL/ArmL1/ArmL2
  - curve:
      serializedVersion: 2
      m_Curve:
      - time: 0
        value: {x: 0, y: 0, z: -3.8274376}
        inSlope: {x: 0, y: 0, z: 0}
        outSlope: {x: 0, y: 0, z: 0}
        tangentMode: 0
      - time: 0.83333325
        value: {x: 0, y: 0, z: -3.8274374}
        inSlope: {x: 0, y: 0, z: 0}
        outSlope: {x: 0, y: 0, z: 0}
        tangentMode: 0
      m_PreInfinity: 2
      m_PostInfinity: 2
      m_RotationOrder: 4
    path: HipR
  - curve:
      serializedVersion: 2
      m_Curve:
      - time: 0
        value: {x: -1.1819271e-13, y: 2.670564, z: 0.00000011339406}
        inSlope: {x: -3.1194573e-14, y: 0, z: 0.00000006978101}
        outSlope: {x: -3.1194573e-14, y: 0, z: 0.00000006978101}
        tangentMode: 0
      - time: 0.79166675
        value: {x: -1.4288841e-13, y: 2.670564, z: 0.00000016863744}
        inSlope: {x: -3.1194567e-14, y: -0, z: 0.000000069781244}
        outSlope: {x: -3.1194536e-14, y: -0, z: 0.00000006978079}
        tangentMode: 0
      - time: 0.83333325
        value: {x: -1.4418818e-13, y: 2.670564, z: 0.00000017154497}
        inSlope: {x: -3.119454e-14, y: -0.000000014597053, z: 0.0000000697808}
        outSlope: {x: -3.119454e-14, y: -0.000000014597053, z: 0.0000000697808}
        tangentMode: 0
      m_PreInfinity: 2
      m_PostInfinity: 2
      m_RotationOrder: 4
    path: HipR/LegR
  - curve:
      serializedVersion: 2
      m_Curve:
      - time: 0
        value: {x: -5.6011565e-13, y: 6.182364, z: -0.000000058145012}
        inSlope: {x: -9.9822474e-14, y: 0, z: -0.00000001744424}
        outSlope: {x: -9.9822474e-14, y: 0, z: -0.00000001744424}
        tangentMode: 0
      - time: 0.79166675
        value: {x: -6.3914184e-13, y: 6.182364, z: -0.00000007195499}
        inSlope: {x: -9.9822873e-14, y: -0, z: -0.000000017444117}
        outSlope: {x: -9.9823036e-14, y: -0, z: -0.00000001744426}
        tangentMode: 0
      - time: 0.83333325
        value: {x: -6.4330106e-13, y: 6.182364, z: -0.000000072681836}
        inSlope: {x: -9.982302e-14, y: 0.000000029194107, z: -0.000000017444258}
        outSlope: {x: -9.982302e-14, y: 0.000000029194107, z: -0.000000017444258}
        tangentMode: 0
      m_PreInfinity: 2
      m_PostInfinity: 2
      m_RotationOrder: 4
    path: HipR/LegR/FootR
  - curve:
      serializedVersion: 2
      m_Curve:
      - time: 0
        value: {x: 0, y: 0, z: -3.8274376}
        inSlope: {x: 0, y: 0, z: 0}
        outSlope: {x: 0, y: 0, z: 0}
        tangentMode: 0
      - time: 0.83333325
        value: {x: 0, y: 0, z: -3.8274374}
        inSlope: {x: 0, y: 0, z: 0}
        outSlope: {x: 0, y: 0, z: 0}
        tangentMode: 0
      m_PreInfinity: 2
      m_PostInfinity: 2
      m_RotationOrder: 4
    path: HipL
  - curve:
      serializedVersion: 2
      m_Curve:
      - time: 0
        value: {x: 0, y: 2.5434818, z: 0.00000011920932}
        inSlope: {x: 0, y: 0, z: 0}
        outSlope: {x: 0, y: 0, z: 0}
        tangentMode: 0
      - time: 0.83333325
        value: {x: 0, y: 2.5434818, z: 0.00000011920932}
        inSlope: {x: 0, y: 0, z: 0}
        outSlope: {x: 0, y: 0, z: 0}
        tangentMode: 0
      m_PreInfinity: 2
      m_PostInfinity: 2
      m_RotationOrder: 4
    path: HipL/LegL
  - curve:
      serializedVersion: 2
      m_Curve:
      - time: 0
        value: {x: -2.2737368e-13, y: 6.2956514, z: -0.0000000029058587}
        inSlope: {x: 0, y: 0, z: 0.000000034890697}
        outSlope: {x: 0, y: 0, z: 0.000000034890697}
        tangentMode: 0
      - time: 0.79166675
        value: {x: -2.2737368e-13, y: 6.2956514, z: 0.000000024715945}
        inSlope: {x: -0, y: -0, z: 0.000000034890707}
        outSlope: {x: -0, y: -0, z: 0.000000034890693}
        tangentMode: 0
      - time: 0.83333325
        value: {x: -2.2737368e-13, y: 6.2956514, z: 0.000000026169719}
        inSlope: {x: 0, y: -0.000000029194107, z: 0.00000003489069}
        outSlope: {x: 0, y: -0.000000029194107, z: 0.00000003489069}
        tangentMode: 0
      m_PreInfinity: 2
      m_PostInfinity: 2
      m_RotationOrder: 4
    path: HipL/LegL/FootL
  m_ScaleCurves:
  - curve:
      serializedVersion: 2
      m_Curve:
      - time: 0
        value: {x: 1, y: 1, z: 1}
        inSlope: {x: 0, y: 0, z: 0}
        outSlope: {x: 0, y: 0, z: 0}
        tangentMode: 0
      - time: 0.83333325
        value: {x: 1, y: 1, z: 1}
        inSlope: {x: 0, y: 0, z: 0}
        outSlope: {x: 0, y: 0, z: 0}
        tangentMode: 0
      m_PreInfinity: 2
      m_PostInfinity: 2
      m_RotationOrder: 4
    path: 
  - curve:
      serializedVersion: 2
      m_Curve:
      - time: 0
        value: {x: 1, y: 1, z: 1}
        inSlope: {x: 0, y: 0, z: 0}
        outSlope: {x: 0, y: 0, z: 0}
        tangentMode: 0
      - time: 0.83333325
        value: {x: 1, y: 1, z: 1}
        inSlope: {x: 0, y: 0, z: 0}
        outSlope: {x: 0, y: 0, z: 0}
        tangentMode: 0
      m_PreInfinity: 2
      m_PostInfinity: 2
      m_RotationOrder: 4
    path: Body
  - curve:
      serializedVersion: 2
      m_Curve:
      - time: 0
        value: {x: 1, y: 1, z: 1}
        inSlope: {x: 0, y: 0, z: 0}
        outSlope: {x: 0, y: 0, z: 0}
        tangentMode: 0
      - time: 0.83333325
        value: {x: 1, y: 1, z: 1}
        inSlope: {x: 0, y: 0, z: 0}
        outSlope: {x: 0, y: 0, z: 0}
        tangentMode: 0
      m_PreInfinity: 2
      m_PostInfinity: 2
      m_RotationOrder: 4
    path: Body/ShoulderR
  - curve:
      serializedVersion: 2
      m_Curve:
      - time: 0
        value: {x: 1, y: 1, z: 1.0000001}
        inSlope: {x: 0, y: 0, z: 0}
        outSlope: {x: 0, y: 0, z: 0}
        tangentMode: 0
      - time: 0.83333325
        value: {x: 1, y: 1, z: 1.0000001}
        inSlope: {x: 0, y: 0, z: 0}
        outSlope: {x: 0, y: 0, z: 0}
        tangentMode: 0
      m_PreInfinity: 2
      m_PostInfinity: 2
      m_RotationOrder: 4
    path: Body/ShoulderR/ArmR1
  - curve:
      serializedVersion: 2
      m_Curve:
      - time: 0
        value: {x: 1, y: 1.0000001, z: 1.0000001}
        inSlope: {x: 0, y: 0, z: 0}
        outSlope: {x: 0, y: 0, z: 0}
        tangentMode: 0
      - time: 0.83333325
        value: {x: 1, y: 1.0000001, z: 1.0000001}
        inSlope: {x: 0, y: 0, z: 0}
        outSlope: {x: 0, y: 0, z: 0}
        tangentMode: 0
      m_PreInfinity: 2
      m_PostInfinity: 2
      m_RotationOrder: 4
    path: Body/ShoulderR/ArmR1/ArmR2
  - curve:
      serializedVersion: 2
      m_Curve:
      - time: 0
        value: {x: 1.0000002, y: 1.0000002, z: 1}
        inSlope: {x: 0, y: 0, z: 0}
        outSlope: {x: 0, y: 0, z: 0}
        tangentMode: 0
      - time: 0.83333325
        value: {x: 1.0000002, y: 1.0000002, z: 1}
        inSlope: {x: 0, y: 0, z: 0}
        outSlope: {x: 0, y: 0, z: 0}
        tangentMode: 0
      m_PreInfinity: 2
      m_PostInfinity: 2
      m_RotationOrder: 4
    path: Body/ShoulderL
  - curve:
      serializedVersion: 2
      m_Curve:
      - time: 0
        value: {x: 1, y: 0.9999999, z: 1}
        inSlope: {x: 0, y: 0, z: 0}
        outSlope: {x: 0, y: 0, z: 0}
        tangentMode: 0
      - time: 0.83333325
        value: {x: 1, y: 0.9999999, z: 1}
        inSlope: {x: 0, y: 0, z: 0}
        outSlope: {x: 0, y: 0, z: 0}
        tangentMode: 0
      m_PreInfinity: 2
      m_PostInfinity: 2
      m_RotationOrder: 4
    path: Body/ShoulderL/ArmL1
  - curve:
      serializedVersion: 2
      m_Curve:
      - time: 0
        value: {x: 1, y: 1.0000001, z: 0.9999999}
        inSlope: {x: 0, y: 0, z: 0}
        outSlope: {x: 0, y: 0, z: 0}
        tangentMode: 0
      - time: 0.83333325
        value: {x: 1, y: 1.0000001, z: 0.9999999}
        inSlope: {x: 0, y: 0, z: 0}
        outSlope: {x: 0, y: 0, z: 0}
        tangentMode: 0
      m_PreInfinity: 2
      m_PostInfinity: 2
      m_RotationOrder: 4
    path: Body/ShoulderL/ArmL1/ArmL2
  - curve:
      serializedVersion: 2
      m_Curve:
      - time: 0
        value: {x: 0.9999999, y: 0.99999976, z: 1}
        inSlope: {x: 0, y: 0, z: 0}
        outSlope: {x: 0, y: 0, z: 0}
        tangentMode: 0
      - time: 0.83333325
        value: {x: 0.9999999, y: 0.9999998, z: 1}
        inSlope: {x: 0, y: 0, z: 0}
        outSlope: {x: 0, y: 0, z: 0}
        tangentMode: 0
      m_PreInfinity: 2
      m_PostInfinity: 2
      m_RotationOrder: 4
    path: HipR
  - curve:
      serializedVersion: 2
      m_Curve:
      - time: 0
        value: {x: 1, y: 1, z: 1}
        inSlope: {x: 0, y: 0, z: 0}
        outSlope: {x: 0, y: 0, z: 0}
        tangentMode: 0
      - time: 0.83333325
        value: {x: 1, y: 1, z: 1}
        inSlope: {x: 0, y: 0, z: 0}
        outSlope: {x: 0, y: 0, z: 0}
        tangentMode: 0
      m_PreInfinity: 2
      m_PostInfinity: 2
      m_RotationOrder: 4
    path: HipR/LegR
  - curve:
      serializedVersion: 2
      m_Curve:
      - time: 0
        value: {x: 1, y: 1, z: 1}
        inSlope: {x: 0, y: 0, z: 0}
        outSlope: {x: 0, y: 0, z: 0}
        tangentMode: 0
      - time: 0.83333325
        value: {x: 1, y: 1, z: 1}
        inSlope: {x: 0, y: 0, z: 0}
        outSlope: {x: 0, y: 0, z: 0}
        tangentMode: 0
      m_PreInfinity: 2
      m_PostInfinity: 2
      m_RotationOrder: 4
    path: HipR/LegR/FootR
  - curve:
      serializedVersion: 2
      m_Curve:
      - time: 0
        value: {x: 1, y: 0.9999999, z: 0.9999999}
        inSlope: {x: 0, y: 0, z: 0}
        outSlope: {x: 0, y: 0, z: 0}
        tangentMode: 0
      - time: 0.83333325
        value: {x: 1, y: 0.9999999, z: 0.9999999}
        inSlope: {x: 0, y: 0, z: 0}
        outSlope: {x: 0, y: 0, z: 0}
        tangentMode: 0
      m_PreInfinity: 2
      m_PostInfinity: 2
      m_RotationOrder: 4
    path: HipL
  - curve:
      serializedVersion: 2
      m_Curve:
      - time: 0
        value: {x: 1, y: 1.0000001, z: 1}
        inSlope: {x: 0, y: 0, z: 0}
        outSlope: {x: 0, y: 0, z: 0}
        tangentMode: 0
      - time: 0.83333325
        value: {x: 1, y: 1.0000001, z: 1}
        inSlope: {x: 0, y: 0, z: 0}
        outSlope: {x: 0, y: 0, z: 0}
        tangentMode: 0
      m_PreInfinity: 2
      m_PostInfinity: 2
      m_RotationOrder: 4
    path: HipL/LegL
  - curve:
      serializedVersion: 2
      m_Curve:
      - time: 0
        value: {x: 1, y: 0.99999976, z: 0.9999999}
        inSlope: {x: 0, y: 0, z: 0}
        outSlope: {x: 0, y: 0, z: 0}
        tangentMode: 0
      - time: 0.83333325
        value: {x: 1, y: 0.9999998, z: 0.9999999}
        inSlope: {x: 0, y: 0, z: 0}
        outSlope: {x: 0, y: 0, z: 0}
        tangentMode: 0
      m_PreInfinity: 2
      m_PostInfinity: 2
      m_RotationOrder: 4
    path: HipL/LegL/FootL
  m_FloatCurves: []
  m_PPtrCurves: []
  m_SampleRate: 24
  m_WrapMode: 0
  m_Bounds:
    m_Center: {x: 0, y: 0, z: 0}
    m_Extent: {x: 0, y: 0, z: 0}
  m_ClipBindingConstant:
    genericBindings:
    - path: 2073732236
      attribute: 2
      script: {fileID: 0}
      classID: 4
      customType: 0
      isPPtrCurve: 0
    - path: 414488592
      attribute: 2
      script: {fileID: 0}
      classID: 4
      customType: 0
      isPPtrCurve: 0
    - path: 407121278
      attribute: 2
      script: {fileID: 0}
      classID: 4
      customType: 0
      isPPtrCurve: 0
    - path: 3992093485
      attribute: 2
      script: {fileID: 0}
      classID: 4
      customType: 0
      isPPtrCurve: 0
    - path: 3803948403
      attribute: 2
      script: {fileID: 0}
      classID: 4
      customType: 0
      isPPtrCurve: 0
    - path: 4226086194
      attribute: 2
      script: {fileID: 0}
      classID: 4
      customType: 0
      isPPtrCurve: 0
    - path: 509818241
      attribute: 2
      script: {fileID: 0}
      classID: 4
      customType: 0
      isPPtrCurve: 0
    - path: 1756834604
      attribute: 2
      script: {fileID: 0}
      classID: 4
      customType: 0
      isPPtrCurve: 0
    - path: 1368175197
      attribute: 2
      script: {fileID: 0}
      classID: 4
      customType: 0
      isPPtrCurve: 0
    - path: 0
      attribute: 1
      script: {fileID: 0}
      classID: 4
      customType: 0
      isPPtrCurve: 0
    - path: 2073732236
      attribute: 1
      script: {fileID: 0}
      classID: 4
      customType: 0
      isPPtrCurve: 0
    - path: 414488592
      attribute: 1
      script: {fileID: 0}
      classID: 4
      customType: 0
      isPPtrCurve: 0
    - path: 407121278
      attribute: 1
      script: {fileID: 0}
      classID: 4
      customType: 0
      isPPtrCurve: 0
    - path: 3992093485
      attribute: 1
      script: {fileID: 0}
      classID: 4
      customType: 0
      isPPtrCurve: 0
    - path: 3803948403
      attribute: 1
      script: {fileID: 0}
      classID: 4
      customType: 0
      isPPtrCurve: 0
    - path: 4226086194
      attribute: 1
      script: {fileID: 0}
      classID: 4
      customType: 0
      isPPtrCurve: 0
    - path: 509818241
      attribute: 1
      script: {fileID: 0}
      classID: 4
      customType: 0
      isPPtrCurve: 0
    - path: 2461537871
      attribute: 1
      script: {fileID: 0}
      classID: 4
      customType: 0
      isPPtrCurve: 0
    - path: 2455760085
      attribute: 1
      script: {fileID: 0}
      classID: 4
      customType: 0
      isPPtrCurve: 0
    - path: 3160246499
      attribute: 1
      script: {fileID: 0}
      classID: 4
      customType: 0
      isPPtrCurve: 0
    - path: 1756834604
      attribute: 1
      script: {fileID: 0}
      classID: 4
      customType: 0
      isPPtrCurve: 0
    - path: 1368175197
      attribute: 1
      script: {fileID: 0}
      classID: 4
      customType: 0
      isPPtrCurve: 0
    - path: 2493148401
      attribute: 1
      script: {fileID: 0}
      classID: 4
      customType: 0
      isPPtrCurve: 0
    - path: 0
      attribute: 2
      script: {fileID: 0}
      classID: 4
      customType: 0
      isPPtrCurve: 0
    - path: 2461537871
      attribute: 2
      script: {fileID: 0}
      classID: 4
      customType: 0
      isPPtrCurve: 0
    - path: 2455760085
      attribute: 2
      script: {fileID: 0}
      classID: 4
      customType: 0
      isPPtrCurve: 0
    - path: 3160246499
      attribute: 2
      script: {fileID: 0}
      classID: 4
      customType: 0
      isPPtrCurve: 0
    - path: 2493148401
      attribute: 2
      script: {fileID: 0}
      classID: 4
      customType: 0
      isPPtrCurve: 0
    - path: 0
      attribute: 3
      script: {fileID: 0}
      classID: 4
      customType: 0
      isPPtrCurve: 0
    - path: 2073732236
      attribute: 3
      script: {fileID: 0}
      classID: 4
      customType: 0
      isPPtrCurve: 0
    - path: 414488592
      attribute: 3
      script: {fileID: 0}
      classID: 4
      customType: 0
      isPPtrCurve: 0
    - path: 407121278
      attribute: 3
      script: {fileID: 0}
      classID: 4
      customType: 0
      isPPtrCurve: 0
    - path: 3992093485
      attribute: 3
      script: {fileID: 0}
      classID: 4
      customType: 0
      isPPtrCurve: 0
    - path: 3803948403
      attribute: 3
      script: {fileID: 0}
      classID: 4
      customType: 0
      isPPtrCurve: 0
    - path: 4226086194
      attribute: 3
      script: {fileID: 0}
      classID: 4
      customType: 0
      isPPtrCurve: 0
    - path: 509818241
      attribute: 3
      script: {fileID: 0}
      classID: 4
      customType: 0
      isPPtrCurve: 0
    - path: 2461537871
      attribute: 3
      script: {fileID: 0}
      classID: 4
      customType: 0
      isPPtrCurve: 0
    - path: 2455760085
      attribute: 3
      script: {fileID: 0}
      classID: 4
      customType: 0
      isPPtrCurve: 0
    - path: 3160246499
      attribute: 3
      script: {fileID: 0}
      classID: 4
      customType: 0
      isPPtrCurve: 0
    - path: 1756834604
      attribute: 3
      script: {fileID: 0}
      classID: 4
      customType: 0
      isPPtrCurve: 0
    - path: 1368175197
      attribute: 3
      script: {fileID: 0}
      classID: 4
      customType: 0
      isPPtrCurve: 0
    - path: 2493148401
      attribute: 3
      script: {fileID: 0}
      classID: 4
      customType: 0
      isPPtrCurve: 0
    pptrCurveMapping: []
  m_AnimationClipSettings:
    serializedVersion: 2
    m_AdditiveReferencePoseClip: {fileID: 0}
    m_AdditiveReferencePoseTime: 0
    m_StartTime: 0
    m_StopTime: 0.83333373
    m_OrientationOffsetY: 0
    m_Level: 0
    m_CycleOffset: 0
    m_HasAdditiveReferencePose: 0
    m_LoopTime: 0
    m_LoopBlend: 0
    m_LoopBlendOrientation: 0
    m_LoopBlendPositionY: 0
    m_LoopBlendPositionXZ: 0
    m_KeepOriginalOrientation: 0
    m_KeepOriginalPositionY: 1
    m_KeepOriginalPositionXZ: 0
    m_HeightFromFeet: 0
    m_Mirror: 0
  m_EditorCurves: []
  m_EulerEditorCurves: []
  m_HasGenericRootTransform: 1
  m_HasMotionFloatCurves: 0
  m_GenerateMotionCurves: 0
  m_Events: []
